Patienten-ID,Geschlecht,Alter,Gewicht,Schweregrad,Schweregrad kodiert
1,m,45,65,schwer,3
2,m,65,87,mittelschwer,2
3,f,34,57,mittelschwer,2
4,m,54,98,leicht,1
5,f,76,80,leicht,1
6,f,74,78,schwer,3
7,m,63,86,leicht,1
8,m,58,73,schwer,3
9,f,85,47,mittelschwer,2
10,f,46,62,leicht,1
