Studium,Geschlecht,Sprachtest,Residual Sprachtest,Residual Sprachtest 2
Ing,M,45,"12,071428571","6,7060225695"
Geist,F,15,"-4,722222222","-1,244644258"
Ing,M,30,"-2,928571429","-8,29397743"
Geist,F,15,"-4,722222222","-1,244644258"
Ing,M,32,"-0,928571429","-6,29397743"
Geist,F,18,"-1,722222222","1,755355742"
Geist,F,15,"-4,722222222","-1,244644258"
Geist,F,13,"-6,722222222","-3,244644258"
Geist,F,17,"-2,722222222","0,755355742"
Geist,F,21,"1,2777777778","4,755355742"
Med,M,38,"8,4615384615","3,6464305111"
Ing,F,25,"-7,928571429","-0,774696759"
Geist,F,16,"-3,722222222","-0,244644258"
Ing,M,36,"3,0714285714","-2,29397743"
Geist,M,33,"13,277777778","4,2360750709"
Med,M,39,"9,4615384615","4,6464305111"
Ing,F,26,"-6,928571429","0,2253032406"
Ing,M,38,"5,0714285714","-0,29397743"
Med,F,21,"-8,538461538","-0,834288818"
Geist,M,20,"0,2777777778","-8,763924929"
Geist,F,23,"3,2777777778","6,755355742"
Med,M,35,"5,4615384615","0,6464305111"
Geist,F,9,"-10,72222222","-7,244644258"
Geist,F,13,"-6,722222222","-3,244644258"
Geist,F,17,"-2,722222222","0,755355742"
Ing,F,29,"-3,928571429","3,2253032406"
Med,M,35,"5,4615384615","0,6464305111"
Med,F,19,"-10,53846154","-2,834288818"
Med,M,36,"6,4615384615","1,6464305111"
Geist,M,30,"10,277777778","1,2360750709"
Geist,M,32,"12,277777778","3,2360750709"
Geist,F,18,"-1,722222222","1,755355742"
Geist,M,30,"10,277777778","1,2360750709"
Ing,M,43,"10,071428571","4,7060225695"
Ing,F,29,"-3,928571429","3,2253032406"
Ing,M,40,"7,0714285714","1,7060225695"
Ing,F,30,"-2,928571429","4,2253032406"
Ing,M,32,"-0,928571429","-6,29397743"
Ing,F,26,"-6,928571429","0,2253032406"
Med,M,36,"6,4615384615","1,6464305111"
Med,F,20,"-9,538461538","-1,834288818"
Med,M,33,"3,4615384615","-1,353569489"
Med,F,18,"-11,53846154","-3,834288818"
Med,M,32,"2,4615384615","-2,353569489"
Med,F,22,"-7,538461538","0,1657111822"
