State,Electoral method,Votes Clinton,% Clinton,Electoral votes Clinton,Votes Trump,% Trump,Electoral votes Trump,State short,Winner,Votes
Alabama,WTA,"718,491",34.54%,0,"1,308,704",62.91%,9,AL,Trump,9
Alaska,WTA,"93,007",36.67%,0,"130,415",51.42%,3,AK,Trump,3
Arizona,WTA,"891,028",45.28%,0,"977,665",49.68%,11,AZ,Trump,11
Arkansas,WTA,"378,632",33.65%,0,"681,765",60.59%,6,AR,Trump,6
California,WTA,"5,488,261",61.46%,55,"2,969,532",33.25%,0,CA,Clinton,55
Colorado,WTA,"1,199,971",47.14%,9,"1,133,146",44.52%,0,CO,Clinton,9
Connecticut,WTA,"823,360",53.9%,7,"637,919",41.7%,0,CT,Clinton,7
Delaware,WTA,"235,581",53.35%,3,"185,103",41.92%,0,DE,Clinton,3
District of Columbia,WTA,"260,223",90.54%,3,"11,553",4.02%,0,DC,Clinton,3
Florida,WTA,"4,487,657",47.79%,0,"4,607,146",49.06%,29,FL,Trump,29
Georgia,WTA,"1,856,509",45.74%,0,"2,078,064",51.20%,16,GA,Trump,16
Hawaii,WTA,"266,827",60.98%,4,"128,815",29.44%,0,HI,Clinton,4
Idaho,WTA,"190,971",27.46%,0,"412,525",59.32%,4,ID,Trump,4
Illinois,WTA,"2,982,415",55.41%,20,"2,121,573",39.41%,0,IL,Clinton,20
Indiana,WTA,"1,024,180",37.87%,0,"1,544,609",57.12%,11,IN,Trump,11
Iowa,WTA,"650,780",41.71%,0,"798,923",51.21%,6,IA,Trump,6
Kansas,WTA,"414,572",36.13%,0,"656,470",57.22%,6,KS,Trump,6
Kentucky,WTA,"628,834",32.69%,0,"1,202,942",62.54%,8,KY,Trump,8
Louisiana,WTA,"779,535",38.44%,0,"1,178,004",58.09%,8,LA,Trump,8
Maine,CD,"352,156",47.84%,3,"332,418",45.16%,1,ME,Clinton,3
Maryland,WTA,"1,502,820",59.50%,10,"878,615",34.79%,0,MD,Clinton,10
Massachusetts,WTA,"1,967,667",60.81%,11,"1,084,400",33.52%,0,MA,Clinton,11
Michigan,WTA,"2,264,807",47.33%,0,"2,277,914",47.60%,16,MI,Trump,16
Minnesota,WTA,"1,364,067",46.41%,10,"1,321,120",44.95%,0,MN,Clinton,10
Mississippi,WTA,"462,127",39.74%,0,"678,284",58.32%,6,MS,Trump,6
Missouri,WTA,"1,054,889",37.84%,0,"1,585,753",56.88%,10,MO,Trump,10
Montana,WTA,"174,281",35.97%,0,"273,879",56.52%,3,MT,Trump,3
Nebraska,CD,"273,181",33.96%,0,"485,326",60.33%,5,NE,Trump,5
Nevada,WTA,"537,753",47.89%,6,"511,319",45.53%,0,NV,Clinton,6
New Hampshire,WTA,"348,497",47.62%,4,"345,810",47.25%,0,NH,Clinton,4
New Jersey,WTA,"1,967,444",54.77%,14,"1,509,688",42.03%,0,NJ,Clinton,14
New Mexico,WTA,"380,923",48.26%,5,"316,134",40.05%,0,NM,Clinton,5
New York,WTA,"4,145,376",57.89%,29,"2,638,135",36.84%,0,NY,Clinton,29
North Carolina,WTA,"2,162,822",46.13%,0,"2,339,830",49.90%,15,NC,Trump,15
North Dakota,WTA,"93,526",27.24%,0,"216,133",62.95%,3,ND,Trump,3
Ohio,WTA,"2,320,596",43.51%,0,"2,776,683",52.06%,18,OH,Trump,18
Oklahoma,WTA,"419,788",28.93%,0,"947,934",65.33%,7,OK,Trump,7
Oregon,WTA,"949,319",49.89%,7,"751,438",39.49%,0,OR,Clinton,7
Pennsylvania,WTA,"2,817,409",47.60%,0,"2,890,633",48.84%,20,PA,Trump,20
Rhode Island,WTA,"227,062",53.83%,4,"166,454",39.46%,0,RI,Clinton,4
South Carolina,WTA,"850,629",40.71%,0,"1,147,045",54.90%,9,SC,Trump,9
South Dakota,WTA,"117,442",31.74%,0,"227,701",61.53%,3,SD,Trump,3
Tennessee,WTA,"868,853",34.90%,0,"1,519,926",61.06%,11,TN,Trump,11
Texas,WTA,"3,867,816",43.32%,0,"4,681,590",52.43%,38,TX,Trump,38
Utah,WTA,"222,858",27.81%,0,"375,006",46.80%,6,UT,Trump,6
Vermont,WTA,"178,082",61.12%,3,"95,114",32.64%,0,VT,Clinton,3
Virginia,WTA,"1,916,148",49.49%,13,"1,729,932",44.68%,0,VA,Clinton,13
Washington,WTA,"1,210,824",55.57%,12,"831,631",38.17%,0,WA,Clinton,12
West Virginia,WTA,"187,519",26.47%,0,"486,304",68.65%,5,WV,Trump,5
Wisconsin,WTA,"1,383,926",46.94%,0,"1,411,432",47.87%,10,WI,Trump,10
Wyoming,WTA,"55,964",21.63%,0,"174,383",67.40%,3,WY,Trump,3
U.S. Total,0,"60,017,405",,232,"59,772,837",,306,US,Trump,306
